Geometric Morphometrics and Archaeological Science
…
Stage 3: Creation of the “Out” object

Central to Momocs are a specific suite of shape classes for: 1) outlines (OutCoo), open outlines (OpnCoo) and landmarks (LdkCoo), with often one class specific to your own dataset. Previous we wanted our objects to be of class LdkCoo, in this instance however our tps data is comprised of outlines, and so we wish for our data to be OutCoo, as to enable efourier (elliptic Fourier) analyses. Other analyses including rfourier (radii Fourier) or tfourier (tangent angle Fourier) analyses can be conducted through this process but for this workshop we’re only going consider elliptic Fourier analysis (EFA).

In this instance the coordinate data (coo) is transformed into outline data through the Momocs::Out(). When performed, we can then enter the object (here titled ‘shape’) and examine its properties.

shape <- Out(tpsdata$coo, fac = database)
shape

## Out (outlines)
##   - 250 outlines, 1543 +/- 1370 coords (in $coo)
##   - 10 classifiers (in $fac): 
## # A tibble: 250 x 10
##      ID Site  Context Longitude Latitude Country Archaeological_~ File_Name
##   <dbl> <chr> <chr>       <dbl>    <dbl> <chr>   <fct>            <chr>    
## 1     1 Balt~ Baltaš~      24.0     54.0 Lithua~ Baltic Magdalen~ Bal.1    
## 2     2 Baro~ Barouka      30.3     53.5 Belarus Grensk           Bor.1    
## 3     3 Baro~ Barouka      30.3     53.5 Belarus Grensk           Bor.3    
## 4     4 Baro~ Barouka      30.3     53.5 Belarus Grensk           Bor.4    
## 5     5 Baro~ Barouka      30.3     53.5 Belarus Grensk           Bor.5    
## 6     6 Baro~ Barouka      30.3     53.5 Belarus Grensk           Bor.6    
## # ... with 244 more rows, and 2 more variables: Reference <chr>, Notes <chr>
##   - also: $ldk
…
norm = TRUE, and the use of a numerical alignment (“through the first ellipse”), is also a suitable option following prior normalisation. The degree of prior normalisation is dependent on the complexity of artefact shape and is thus the choice of the researcher.

Stage 7: Principal Component Analysis

With our new elliptic Fourier coefficients we can begin the exploratory and analytical procedure. We will start by exploring the main theoretical differences in shape through a Principal Component Analysis (PCA). Please refer to the first workshop for a detailed explanation of PCA, and the second workshop for further examples. In the second workshop we needed to turn our LdkCoe() into a PCA class object through the Momocs::PCA() function. Here we need to repeat the process (or as demonstrated previously we can utilise the dplyr piping operators).

We can then explore the main sources of shape variation through the Momocs::scree(), Momocs::PCcontrib(), and Momocs::plot_PCA() functions.

pcashape <- PCA(efashape)

With our new PCA class object we can assess the proportion and cumulated proportion of the principal components (sources of shape variation) through Momocs::scree():

scree(pcashape)

## # A tibble: 68 x 3
##     axis proportion cumsum
##    <int>      <dbl>  <dbl>
##  1     1    0.549    0.549
##  2     2    0.156    0.704
##  3     3    0.107    0.812
##  4     4    0.0297   0.841
##  5     5    0.0286   0.870
##  6     6    0.0276   0.897
##  7     7    0.0200   0.917
##  8     8    0.0119   0.929
##  9     9    0.0110   0.940
## 10    10    0.00863  0.949
## # ... with 58 more rows
…
